{
	"ChannelIP": "127.0.0.1",
	"ChannelPort": 9555,
	"TlgTextSlice": [
		"FF UUUULEMZ\n\t\t311548 ALBERTRP\n\t\tCHIP AND\n\t\tDALY DOLB",
		"FF UUUULEMZ\n311548 ALBERTRP\nCHIP AND\nDALY DOLB FROM CHIP TO DALE 1",
		"FF UUUULEMZ\n311548 ALBERTRP\nCHIP AND\nDALY DOLB FROM DALE TO CHIP 2",
		"FF UUUULEMZ\n311548 ALBERTRP\nCHIP AND\nDALY DOLB FROM HAECHKA TO ROKKY 3",
		"FF UUUULEMZ\n311548 ALBERTRP\nCHIP AND\nDALY DOLB FROM ROKKY TO HAECHKA 4"
	],
	"TlgSendIntervalSec": 3
}